<svg width="43" height="18" viewBox="0 0 43 18" fill="none" xmlns="http://www.w3.org/2000/svg">
<path d="M39.2617 9.00006L28.3555 14.7778L28.3555 9.00006L28.3555 3.22229L39.2617 9.00006Z" fill="#191B20"/>
<path d="M-0.00082448 9.00006L39.2617 9.00006M39.2617 9.00006L28.3555 14.7778L28.3555 3.22229L39.2617 9.00006Z" stroke="#191B20" stroke-width="3"/>
</svg>
