<svg width="17" height="103" viewBox="0 0 17 103" fill="none" xmlns="http://www.w3.org/2000/svg">
<path d="M3.00586 101.742L3.00586 98.6318C3.00586 97.2145 3.20866 96.1868 3.61426 95.5488C4.0153 94.9062 4.6556 94.585 5.53516 94.585C6.13216 94.585 6.62207 94.7262 7.00488 95.0088C7.38769 95.2868 7.61784 95.6582 7.69531 96.123L7.76367 96.123C7.90495 95.4896 8.16927 95.0339 8.55664 94.7559C8.94401 94.4733 9.45898 94.332 10.1016 94.332C11.013 94.332 11.724 94.6624 12.2344 95.3232C12.7448 95.9795 13 96.8727 13 98.0029L13 101.742L3.00586 101.742ZM6.96387 99.623L6.96387 98.3926C6.96387 97.8184 6.875 97.4036 6.69727 97.1484C6.51953 96.8887 6.22559 96.7588 5.81543 96.7588C5.43262 96.7588 5.15918 96.9001 4.99512 97.1826C4.8265 97.4606 4.74219 97.9027 4.74219 98.5088L4.74219 99.623L6.96387 99.623ZM8.64551 99.623L11.25 99.623L11.25 98.2422C11.25 97.6589 11.1383 97.2282 10.915 96.9502C10.6917 96.6722 10.3499 96.5332 9.88965 96.5332C9.06022 96.5332 8.64551 97.1257 8.64551 98.3105L8.64551 99.623ZM13 87.6465L11.9609 88.0498L11.9609 88.1045C12.403 88.4554 12.7106 88.8177 12.8838 89.1914C13.0524 89.5605 13.1367 90.0436 13.1367 90.6406C13.1367 91.3743 12.9271 91.9531 12.5078 92.377C12.0885 92.7962 11.4915 93.0059 10.7168 93.0059C9.9056 93.0059 9.30859 92.7233 8.92578 92.1582C8.53841 91.5885 8.32422 90.7318 8.2832 89.5879L8.24219 88.2617L7.90723 88.2617C7.13249 88.2617 6.74512 88.6582 6.74512 89.4512C6.74512 90.0618 6.92969 90.7796 7.29883 91.6045L5.89062 92.2949C5.43034 91.4154 5.20019 90.4401 5.20019 89.3691C5.20019 88.3437 5.4235 87.5576 5.87012 87.0107C6.31673 86.4639 6.99577 86.1904 7.90723 86.1904L13 86.1904L13 87.6465ZM9.45898 88.2617L9.48633 89.0684C9.50456 89.6745 9.61393 90.1257 9.81445 90.4219C10.015 90.7181 10.3203 90.8662 10.7305 90.8662C11.3184 90.8662 11.6123 90.529 11.6123 89.8545C11.6123 89.3714 11.4733 88.9863 11.1953 88.6992C10.9173 88.4076 10.5482 88.2617 10.0879 88.2617L9.45898 88.2617ZM13.1367 80.9336C13.1367 83.3125 11.8311 84.502 9.21973 84.502C7.9209 84.502 6.92969 84.1784 6.24609 83.5312C5.55794 82.8841 5.21387 81.9567 5.21387 80.749C5.21387 79.8649 5.38704 79.0719 5.7334 78.3701L7.34668 78.9854C7.21452 79.3135 7.10742 79.6188 7.02539 79.9014C6.9388 80.1839 6.89551 80.4665 6.89551 80.749C6.89551 81.8337 7.66569 82.376 9.20605 82.376C10.7008 82.376 11.4482 81.8337 11.4482 80.749C11.4482 80.348 11.3958 79.9766 11.291 79.6348C11.1816 79.293 11.013 78.9512 10.7852 78.6094L12.5693 78.6094C12.7835 78.9466 12.9316 79.2884 13.0137 79.6348C13.0957 79.9766 13.1367 80.4095 13.1367 80.9336ZM8.84375 74.8291L7.68164 73.9199L5.35742 71.7803L5.35742 69.4287L8.67285 72.4639L13 69.2441L13 71.6504L9.90332 73.8516L10.6211 74.7471L13 74.7471L13 76.832L2.36328 76.832L2.36328 74.7471L7.10742 74.7471L8.84375 74.8564L8.84375 74.8291ZM11.4756 61.2939C11.4756 60.9294 11.3958 60.4919 11.2363 59.9814L12.7881 59.9814C13.0205 60.501 13.1367 61.139 13.1367 61.8955C13.1367 62.7295 12.9271 63.3379 12.5078 63.7207C12.084 64.099 11.4505 64.2881 10.6074 64.2881L6.92285 64.2881L6.92285 65.2861L6.04101 65.2861L5.34375 64.1377L3.73047 63.5361L3.73047 62.2031L5.35742 62.2031L5.35742 60.0635L6.92285 60.0635L6.92285 62.2031L10.6074 62.2031C10.9036 62.2031 11.1224 62.1211 11.2637 61.957C11.4049 61.7884 11.4756 61.5674 11.4756 61.2939ZM9.16504 56.7686C9.92155 56.7686 10.4935 56.6455 10.8809 56.3994C11.2682 56.1488 11.4619 55.7432 11.4619 55.1826C11.4619 54.6266 11.2705 54.2279 10.8877 53.9863C10.5003 53.7402 9.9261 53.6172 9.16504 53.6172C8.40853 53.6172 7.84114 53.7402 7.46289 53.9863C7.08463 54.2324 6.89551 54.6357 6.89551 55.1963C6.89551 55.7523 7.08463 56.1533 7.46289 56.3994C7.83659 56.6455 8.40397 56.7686 9.16504 56.7686ZM9.16504 51.4844C10.4092 51.4844 11.3822 51.8125 12.084 52.4687C12.7858 53.125 13.1367 54.0387 13.1367 55.21C13.1367 55.9437 12.9772 56.5908 12.6582 57.1514C12.3346 57.7119 11.8721 58.1426 11.2705 58.4434C10.6689 58.7441 9.96712 58.8945 9.16504 58.8945C7.91634 58.8945 6.94564 58.5687 6.25293 57.917C5.56022 57.2653 5.21387 56.3493 5.21387 55.1689C5.21387 54.4352 5.37337 53.7881 5.69238 53.2275C6.01139 52.667 6.4694 52.2363 7.0664 51.9355C7.66341 51.6348 8.36295 51.4844 9.16504 51.4844ZM11.4756 42.9053C11.4756 42.5407 11.3958 42.1032 11.2363 41.5928L12.7881 41.5928C13.0205 42.1123 13.1367 42.7503 13.1367 43.5068C13.1367 44.3408 12.9271 44.9492 12.5078 45.332C12.084 45.7103 11.4505 45.8994 10.6074 45.8994L6.92285 45.8994L6.92285 46.8975L6.04101 46.8975L5.34375 45.749L3.73047 45.1475L3.73047 43.8145L5.35742 43.8145L5.35742 41.6748L6.92285 41.6748L6.92285 43.8145L10.6074 43.8145C10.9036 43.8145 11.1224 43.7324 11.2637 43.5684C11.4049 43.3997 11.4756 43.1787 11.4756 42.9053ZM9.16504 38.3799C9.92155 38.3799 10.4935 38.2568 10.8809 38.0107C11.2682 37.7601 11.4619 37.3545 11.4619 36.7939C11.4619 36.238 11.2705 35.8392 10.8877 35.5977C10.5003 35.3516 9.9261 35.2285 9.16504 35.2285C8.40853 35.2285 7.84114 35.3516 7.46289 35.5977C7.08463 35.8437 6.8955 36.2471 6.8955 36.8076C6.8955 37.3636 7.08463 37.7646 7.46289 38.0107C7.83659 38.2568 8.40397 38.3799 9.16504 38.3799ZM9.16504 33.0957C10.4092 33.0957 11.3822 33.4238 12.084 34.0801C12.7858 34.7363 13.1367 35.6501 13.1367 36.8213C13.1367 37.555 12.9772 38.2021 12.6582 38.7627C12.3346 39.3232 11.8721 39.7539 11.2705 40.0547C10.6689 40.3555 9.96712 40.5059 9.16504 40.5059C7.91634 40.5059 6.94564 40.18 6.25293 39.5283C5.56022 38.8766 5.21386 37.9606 5.21386 36.7803C5.21386 36.0465 5.37337 35.3994 5.69238 34.8389C6.01139 34.2783 6.4694 33.8477 7.0664 33.5469C7.66341 33.2461 8.36295 33.0957 9.16504 33.0957ZM13.1367 27.1758C13.1367 28.0736 12.8109 28.7777 12.1592 29.2881L12.1592 29.3975C12.7972 29.3245 13.1663 29.2881 13.2666 29.2881L16.3633 29.2881L16.3633 31.373L5.35742 31.373L5.35742 29.6777L6.34863 29.3838L6.34863 29.2881C5.59212 28.8005 5.21386 28.0781 5.21386 27.1211C5.21386 26.2187 5.5625 25.5124 6.25976 25.002C6.95703 24.4915 7.92545 24.2363 9.16504 24.2363C9.98079 24.2363 10.6894 24.3571 11.291 24.5986C11.8926 24.8356 12.3506 25.1751 12.665 25.6172C12.9795 26.0592 13.1367 26.5788 13.1367 27.1758ZM6.88183 27.791C6.88183 28.306 7.04134 28.682 7.36035 28.9189C7.6748 29.1559 8.19661 29.279 8.92578 29.2881L9.15136 29.2881C9.97168 29.2881 10.5596 29.1673 10.915 28.9258C11.2705 28.6797 11.4482 28.2923 11.4482 27.7637C11.4482 26.8294 10.6781 26.3623 9.13769 26.3623C8.38574 26.3623 7.82291 26.4785 7.44922 26.7109C7.07096 26.9388 6.88183 27.2988 6.88183 27.791Z" fill="white"/>
<path d="M13.7461 7.70744L9.37268 2.74146L4.99927 7.70744" stroke="white" stroke-width="3" stroke-linecap="round"/>
</svg>
