<svg width="172" height="48" viewBox="0 0 172 48" fill="none" xmlns="http://www.w3.org/2000/svg">
<path d="M60.2339 7.83252H53.8533C53.7114 7.83252 53.5883 7.93319 53.5566 8.0753L45.7774 42.812C45.7335 43.0083 45.8785 43.1954 46.0741 43.1954H52.4546C52.5966 43.1954 52.7196 43.0946 52.7516 42.9526L60.5305 8.21563C60.5747 8.0196 60.4297 7.83252 60.2339 7.83252Z" fill="#FFC700"/>
<path d="M71.4613 17.8462H65.0795C64.937 17.8462 64.8133 17.9481 64.7822 18.0913L59.4351 42.814C59.3928 43.0093 59.5375 43.1948 59.7324 43.1948H66.1139C66.2568 43.1948 66.3801 43.0928 66.4112 42.9495L71.7586 18.227C71.8009 18.0316 71.6559 17.8462 71.4613 17.8462Z" fill="#FFC700"/>
<path d="M85.2677 17.8463H78.8887C78.7479 17.8463 78.6255 17.9454 78.5926 18.086L72.7996 42.8087C72.7536 43.0056 72.8986 43.1949 73.0956 43.1949H79.4747C79.6154 43.1949 79.7378 43.0957 79.771 42.9552L83.3585 27.6437C83.5641 26.7666 84.0195 25.9639 84.7185 25.4182C87.3075 23.3969 90.786 21.8088 89.6139 27.3912C88.334 33.488 86.9524 39.9747 86.3441 42.8175C86.3024 43.0128 86.4477 43.1949 86.6423 43.1949H92.8736C93.0159 43.1949 93.1392 43.0938 93.1706 42.9514L96.6195 27.3912C97.9414 22.0646 96.6195 14.0846 85.2144 19.724L85.5638 18.2325C85.6097 18.0357 85.4648 17.8463 85.2677 17.8463Z" fill="#191B20" stroke="#191B20"/>
<path d="M114.011 7.83252H107.631C107.489 7.83252 107.366 7.93319 107.334 8.0753L99.5547 42.812C99.5109 43.0083 99.6559 43.1954 99.8514 43.1954H106.232C106.374 43.1954 106.497 43.0946 106.529 42.9526L108.787 32.8682H110.282L112.662 42.956C112.695 43.0965 112.818 43.1954 112.958 43.1954H119.334C119.532 43.1954 119.678 43.0039 119.63 42.8064L116.526 30.0517L124.703 18.5002C124.849 18.2934 124.705 18.0032 124.456 18.0032H117.597C117.498 18.0032 117.406 18.0525 117.349 18.1355L111.196 27.0788H110.084L114.308 8.21563C114.352 8.0196 114.207 7.83252 114.011 7.83252Z" fill="#191B20" stroke="#191B20"/>
<path d="M31.643 25.827L14.7383 43.1954H26.5898C27.6211 43.1954 28.6588 43.1112 29.6554 42.839C42.9652 39.2029 41.5446 25.4313 37.4302 23.1668C47.7863 13.622 40.4761 5.1725 35.755 4.39014L26.465 23.7927H30.8816C31.643 23.7927 32.4045 24.888 31.643 25.827Z" fill="#FFC700"/>
<path d="M13.2131 31.7819L6.76982 43.205H2.80472C2.01172 43.205 1.89997 42.8282 2.03512 42.1009C4.18287 30.5348 7.97487 7.20742 8.25671 5.7588C8.55454 4.22806 8.43176 4.22803 10.2393 4.22803H29.0735C22.7954 11.7118 9.84274 27.1897 8.25671 29.2307C7.15674 30.6462 7.36545 31.6172 8.75237 31.7819H13.2131Z" fill="#191B20" stroke="#191B20"/>
<path d="M73.5948 7.98926H67.2127C67.0696 7.98926 66.9456 8.09187 66.9152 8.23573L65.5247 14.8076C65.4833 15.0026 65.628 15.187 65.8223 15.187H72.2044C72.3478 15.187 72.4715 15.0844 72.5019 14.9405L73.8927 8.36867C73.9338 8.17361 73.7892 7.98926 73.5948 7.98926Z" fill="#191B20" stroke="#191B20"/>
<path d="M130.066 12.34L130.593 8.41414C130.609 8.29519 130.688 8.19658 130.799 8.16131C134.319 7.05036 141.41 6.44854 144.478 8.77171C147.372 10.9625 149.047 16.2824 143.108 21.5197L133.984 29.5755C133.77 29.7648 133.9 30.1256 134.182 30.1256H142.715C142.914 30.1256 143.059 30.3187 143.01 30.5165L141.796 35.3671C141.761 35.5055 141.64 35.6022 141.501 35.6022H124.449C124.255 35.6022 124.11 35.4175 124.152 35.2226L125.116 30.6927C125.129 30.6292 125.16 30.5735 125.207 30.53C129.147 26.8494 137.632 18.9238 139.757 16.9082C141.737 15.0306 140.975 12.327 138.691 12.1314C136.936 11.9811 133.7 12.1875 130.416 12.6934C130.214 12.7245 130.038 12.5479 130.066 12.34Z" fill="#FFC700"/>
<path d="M151.648 12.34L152.175 8.41414C152.191 8.29519 152.27 8.19658 152.381 8.16131C155.901 7.05036 162.992 6.44854 166.06 8.77171C168.954 10.9625 170.629 16.2824 164.69 21.5197L155.566 29.5755C155.352 29.7648 155.482 30.1256 155.765 30.1256H164.297C164.496 30.1256 164.642 30.3187 164.592 30.5165L163.378 35.3671C163.343 35.5055 163.222 35.6022 163.083 35.6022H146.031C145.837 35.6022 145.692 35.4175 145.734 35.2226L146.698 30.6927C146.712 30.6292 146.742 30.5735 146.789 30.53C150.729 26.8494 159.214 18.9238 161.339 16.9082C163.319 15.0306 162.558 12.327 160.273 12.1314C158.518 11.9811 155.282 12.1875 151.998 12.6934C151.796 12.7245 151.62 12.5479 151.648 12.34Z" fill="#FFC700"/>
</svg>
